{
  "main.css": "./static/css/main.4b2136e7.chunk.css",
  "main.js": "./static/js/main.acb08b33.chunk.js",
  "main.js.map": "./static/js/main.acb08b33.chunk.js.map",
  "static/css/1.7835b90d.chunk.css": "./static/css/1.7835b90d.chunk.css",
  "static/js/1.c995a9ac.chunk.js": "./static/js/1.c995a9ac.chunk.js",
  "static/js/1.c995a9ac.chunk.js.map": "./static/js/1.c995a9ac.chunk.js.map",
  "runtime~main.js": "./static/js/runtime~main.4a686d48.js",
  "runtime~main.js.map": "./static/js/runtime~main.4a686d48.js.map",
  "static/media/onsenui.css": "./static/media/fa-solid-900.de1d242d.svg",
  "static/css/main.4b2136e7.chunk.css.map": "./static/css/main.4b2136e7.chunk.css.map",
  "static/css/1.7835b90d.chunk.css.map": "./static/css/1.7835b90d.chunk.css.map",
  "index.html": "./index.html",
  "precache-manifest.1ee330b2558d6bc5e6a7d908c5a1f9a9.js": "./precache-manifest.1ee330b2558d6bc5e6a7d908c5a1f9a9.js",
  "service-worker.js": "./service-worker.js"
}